{
    "code": "0",
    "result": {
        "list": [
            {
                "admin_id": "2",
                "account": "account",
                "password": "$2y$12$yPE6AIvizlMUsrYVZV9r8uWgJpAwJRzSs.Ytv1jy0kq0yhDad3GT2",
                "role": "1",
                "nickname": "root",
                "number": 1,
                "status": 1,
                "enable": 1,
                "create_at": "1970-01-01 00:00:01",
                "update_at": "1970-01-01 00:00:01"
            },
            {
                "admin_id": "3",
                "account": "account",
                "password": "$2y$12$yPE6AIvizlMUsrYVZV9r8uWgJpAwJRzSs.Ytv1jy0kq0yhDad3GT2",
                "role": "1",
                "nickname": "root2",
                "number": 1,
                "status": 1,
                "enable": 1,
                "create_at": "1970-01-01 00:00:01",
                "update_at": "1970-01-01 00:00:01"
            }
        ],
        "pageSize": 2,
        "total": 4,
        "totalPage": 2
    },
    "message": "Success"
}